…
The dataset we'll be using for this assignment is both curated and hosted by the [Vanderbilt Department of Biostatistics](http://biostat.mc.vanderbilt.edu/wiki/Main/DataSets). Download and read in the **stressEcho.csv** dataset.

## Stress Tests

Dobutamine is a drug that is used during echocardiograms (aka "stress tests"), which are clinical tests used to estimate heart function. The treatment causes heart rate to increase, and its effects at different dosages were measured in a [study published in 1999](https://www.ncbi.nlm.nih.gov/pubmed/10080472). We'll be using the data behind this paper to answer the questions that follow. 


```
## # A tibble: 558 x 32
##       X1   bhr basebp basedp  pkhr   sbp    dp  dose maxhr pctMphr   mbp
##    <int> <int>  <int>  <int> <int> <int> <int> <int> <int>   <int> <int>
##  1     1    92    103   9476   114    86  9804    40   100      74   121
##  2     2    62    139   8618   120   158 18960    40   120      82   158
##  3     3    62    139   8618   120   157 18840    40   120      82   157
##  4     4    93    118  10974   118   105 12390    30   118      72   105
##  5     5    89    103   9167   129   173 22317    40   129      69   176
##  6     6    58    100   5800   123   140 17220    40   123      83   140
##  7     7    63    120   7560    98   130 12740    40    98      71   130
##  8     8    86    161  13846   144   157 22608    40   144     111   157
##  9     9    69    143   9867   115   118 13570    40   113      81   151
## 10    10    76    105   7980   126   125 15750    40   126      94   125
## # ... with 548 more rows, and 21 more variables: dpmaxdo <int>,
## #   dobdose <int>, age <int>, gender <chr>, baseEF <int>, dobEF <int>,
## #   chestpain <int>, restwma <int>, posSE <int>, newMI <int>,
## #   newPTCA <int>, newCABG <int>, death <int>, hxofHT <int>, hxofDM <int>,
## #   hxofCig <chr>, hxofMI <int>, hxofPTCA <int>, hxofCABG <int>,
## #   any.event <int>, ecg <chr>
```
…
