…
### EXERCISE 1 ###
** YOUR TURN **
This should mostly be a review from last session. 

1. Starting with the nhanes dataset, create a dataset of children aged 2-10

```
## # A tibble: 640 x 32
##       id Gender   Age Race     Education MaritalStatus RelationshipStatus
##    <int> <fct>  <int> <fct>    <fct>     <fct>         <fct>             
##  1 62175 male       5 White    <NA>      <NA>          <NA>              
##  2 62219 female     2 Mexican  <NA>      <NA>          <NA>              
##  3 62235 female     2 White    <NA>      <NA>          <NA>              
##  4 62241 male       2 Hispanic <NA>      <NA>          <NA>              
##  5 62257 female     2 Mexican  <NA>      <NA>          <NA>              
##  6 62263 male       2 White    <NA>      <NA>          <NA>              
##  7 62271 male       7 Black    <NA>      <NA>          <NA>              
##  8 62276 male       9 White    <NA>      <NA>          <NA>              
##  9 62313 male       7 Mexican  <NA>      <NA>          <NA>              
## 10 62323 female     2 Black    <NA>      <NA>          <NA>              
## # ... with 630 more rows, and 25 more variables: Insured <fct>,
## #   Income <int>, Poverty <dbl>, HomeRooms <int>, HomeOwn <fct>,
## #   Work <fct>, Weight <dbl>, Height <dbl>, BMI <dbl>, Pulse <int>,
## #   BPSys <int>, BPDia <int>, Testosterone <dbl>, HDLChol <dbl>,
## #   TotChol <dbl>, Diabetes <fct>, DiabetesAge <int>, nPregnancies <int>,
## #   nBabies <int>, SleepHrsNight <int>, PhysActive <fct>,
## #   PhysActiveDays <int>, AlcoholDay <int>, AlcoholYear <int>,
## #   SmokingStatus <fct>
```
…
